<?xml version="1.0" encoding="UTF-8"?>
<glyph name="Z" format="1">
  <advance width="400"/>
  <unicode hex="005A"/>
  <outline>
    <contour>
      <point x="50" y="600" type="line"/>
      <point x="310" y="600" type="line"/>
      <point x="350" y="630" type="line"/>
      <point x="350" y="700" type="line"/>
      <point x="50" y="700" type="line"/>
    </contour>
    <contour>
      <point x="50" y="0" type="line"/>
      <point x="350" y="0" type="line"/>
      <point x="350" y="100" type="line"/>
      <point x="90" y="100" type="line"/>
      <point x="50" y="70" type="line"/>
    </contour>
    <contour>
      <point x="140" y="20" type="line"/>
      <point x="350" y="630" type="line"/>
      <point x="260" y="680" type="line"/>
      <point x="50" y="70" type="line"/>
    </contour>
  </outline>
  <lib>
    <dict>
      <key>com.typemytype.robofont.layerData</key>
      <dict>
        <key>background</key>
        <dict>
          <key>anchors</key>
          <array>
          </array>
          <key>components</key>
          <array>
          </array>
          <key>contours</key>
          <array>
          </array>
          <key>lib</key>
          <dict>
          </dict>
          <key>name</key>
          <string>Z</string>
          <key>unicodes</key>
          <array>
          </array>
          <key>width</key>
          <integer>400</integer>
        </dict>
      </dict>
      <key>com.typemytype.robofont.mark</key>
      <array>
        <real>1.0</real>
        <real>0.0</real>
        <real>0.0</real>
        <real>1.0</real>
      </array>
    </dict>
  </lib>
</glyph>
