<?xml version="1.0" encoding="UTF-8"?>
<glyph name="Oslash.small" format="1">
  <advance width="600"/>
  <outline>
    <contour>
      <point x="50" y="0" type="line"/>
      <point x="130" y="-60" type="line"/>
      <point x="550" y="500" type="line"/>
      <point x="470" y="560" type="line"/>
    </contour>
    <component base="o"/>
  </outline>
</glyph>
