<?xml version="1.0" encoding="UTF-8"?>
<glyph name="p" format="1">
  <advance width="550"/>
  <unicode hex="0070"/>
  <outline>
    <contour>
      <point x="25" y="500" type="line"/>
      <point x="25" y="-200" type="line"/>
      <point x="225" y="-200" type="line"/>
      <point x="225" y="420" type="line"/>
      <point x="200" y="500" type="line"/>
    </contour>
    <contour>
      <point x="225" y="420" type="curve"/>
      <point x="225" y="260" type="line"/>
      <point x="225" y="290"/>
      <point x="240" y="310"/>
      <point x="275" y="310" type="curve" smooth="yes"/>
      <point x="310" y="310"/>
      <point x="325" y="290"/>
      <point x="325" y="260" type="curve"/>
      <point x="325" y="250" type="line"/>
      <point x="525" y="250" type="line"/>
      <point x="525" y="290" type="line"/>
      <point x="525" y="440"/>
      <point x="465" y="510"/>
      <point x="370" y="510" type="curve"/>
      <point x="290" y="510"/>
      <point x="245" y="485"/>
    </contour>
    <contour>
      <point x="245" y="15"/>
      <point x="290" y="-10"/>
      <point x="370" y="-10" type="curve"/>
      <point x="465" y="-10"/>
      <point x="525" y="60"/>
      <point x="525" y="210" type="curve"/>
      <point x="525" y="250" type="line"/>
      <point x="325" y="250" type="line"/>
      <point x="325" y="240" type="line"/>
      <point x="325" y="210"/>
      <point x="310" y="190"/>
      <point x="275" y="190" type="curve" smooth="yes"/>
      <point x="240" y="190"/>
      <point x="225" y="210"/>
      <point x="225" y="240" type="curve"/>
      <point x="225" y="80" type="line"/>
    </contour>
  </outline>
  <lib>
    <dict>
      <key>com.typemytype.robofont.layerData</key>
      <dict>
        <key>background</key>
        <dict>
          <key>anchors</key>
          <array>
          </array>
          <key>components</key>
          <array>
          </array>
          <key>contours</key>
          <array>
            <dict>
              <key>points</key>
              <array>
                <dict>
                  <key>segmentType</key>
                  <string>line</string>
                  <key>smooth</key>
                  <false/>
                  <key>x</key>
                  <integer>25</integer>
                  <key>y</key>
                  <integer>0</integer>
                </dict>
                <dict>
                  <key>segmentType</key>
                  <string>line</string>
                  <key>smooth</key>
                  <false/>
                  <key>x</key>
                  <integer>165</integer>
                  <key>y</key>
                  <integer>0</integer>
                </dict>
                <dict>
                  <key>segmentType</key>
                  <string>line</string>
                  <key>smooth</key>
                  <false/>
                  <key>x</key>
                  <integer>175</integer>
                  <key>y</key>
                  <integer>80</integer>
                </dict>
                <dict>
                  <key>segmentType</key>
                  <string>line</string>
                  <key>smooth</key>
                  <false/>
                  <key>x</key>
                  <integer>175</integer>
                  <key>y</key>
                  <integer>700</integer>
                </dict>
                <dict>
                  <key>segmentType</key>
                  <string>line</string>
                  <key>smooth</key>
                  <false/>
                  <key>x</key>
                  <integer>25</integer>
                  <key>y</key>
                  <integer>700</integer>
                </dict>
              </array>
            </dict>
            <dict>
              <key>points</key>
              <array>
                <dict>
                  <key>segmentType</key>
                  <string>line</string>
                  <key>smooth</key>
                  <false/>
                  <key>x</key>
                  <integer>175</integer>
                  <key>y</key>
                  <integer>80</integer>
                </dict>
                <dict>
                  <key>smooth</key>
                  <false/>
                  <key>x</key>
                  <integer>195</integer>
                  <key>y</key>
                  <integer>25</integer>
                </dict>
                <dict>
                  <key>smooth</key>
                  <false/>
                  <key>x</key>
                  <integer>240</integer>
                  <key>y</key>
                  <integer>-10</integer>
                </dict>
                <dict>
                  <key>segmentType</key>
                  <string>curve</string>
                  <key>smooth</key>
                  <false/>
                  <key>x</key>
                  <integer>335</integer>
                  <key>y</key>
                  <integer>-10</integer>
                </dict>
                <dict>
                  <key>smooth</key>
                  <false/>
                  <key>x</key>
                  <integer>455</integer>
                  <key>y</key>
                  <integer>-10</integer>
                </dict>
                <dict>
                  <key>smooth</key>
                  <false/>
                  <key>x</key>
                  <integer>525</integer>
                  <key>y</key>
                  <integer>60</integer>
                </dict>
                <dict>
                  <key>segmentType</key>
                  <string>curve</string>
                  <key>smooth</key>
                  <false/>
                  <key>x</key>
                  <integer>525</integer>
                  <key>y</key>
                  <integer>210</integer>
                </dict>
                <dict>
                  <key>segmentType</key>
                  <string>line</string>
                  <key>smooth</key>
                  <false/>
                  <key>x</key>
                  <integer>525</integer>
                  <key>y</key>
                  <integer>250</integer>
                </dict>
                <dict>
                  <key>segmentType</key>
                  <string>line</string>
                  <key>smooth</key>
                  <false/>
                  <key>x</key>
                  <integer>375</integer>
                  <key>y</key>
                  <integer>250</integer>
                </dict>
                <dict>
                  <key>segmentType</key>
                  <string>line</string>
                  <key>smooth</key>
                  <false/>
                  <key>x</key>
                  <integer>375</integer>
                  <key>y</key>
                  <integer>240</integer>
                </dict>
                <dict>
                  <key>smooth</key>
                  <false/>
                  <key>x</key>
                  <integer>375</integer>
                  <key>y</key>
                  <integer>170</integer>
                </dict>
                <dict>
                  <key>smooth</key>
                  <false/>
                  <key>x</key>
                  <integer>335</integer>
                  <key>y</key>
                  <integer>140</integer>
                </dict>
                <dict>
                  <key>segmentType</key>
                  <string>curve</string>
                  <key>smooth</key>
                  <true/>
                  <key>x</key>
                  <integer>275</integer>
                  <key>y</key>
                  <integer>140</integer>
                </dict>
                <dict>
                  <key>smooth</key>
                  <false/>
                  <key>x</key>
                  <integer>195</integer>
                  <key>y</key>
                  <integer>140</integer>
                </dict>
                <dict>
                  <key>smooth</key>
                  <false/>
                  <key>x</key>
                  <integer>175</integer>
                  <key>y</key>
                  <integer>170</integer>
                </dict>
                <dict>
                  <key>segmentType</key>
                  <string>curve</string>
                  <key>smooth</key>
                  <false/>
                  <key>x</key>
                  <integer>175</integer>
                  <key>y</key>
                  <integer>240</integer>
                </dict>
              </array>
            </dict>
            <dict>
              <key>points</key>
              <array>
                <dict>
                  <key>smooth</key>
                  <false/>
                  <key>x</key>
                  <integer>240</integer>
                  <key>y</key>
                  <integer>510</integer>
                </dict>
                <dict>
                  <key>smooth</key>
                  <false/>
                  <key>x</key>
                  <integer>195</integer>
                  <key>y</key>
                  <integer>475</integer>
                </dict>
                <dict>
                  <key>segmentType</key>
                  <string>curve</string>
                  <key>smooth</key>
                  <false/>
                  <key>x</key>
                  <integer>175</integer>
                  <key>y</key>
                  <integer>420</integer>
                </dict>
                <dict>
                  <key>segmentType</key>
                  <string>line</string>
                  <key>smooth</key>
                  <false/>
                  <key>x</key>
                  <integer>175</integer>
                  <key>y</key>
                  <integer>260</integer>
                </dict>
                <dict>
                  <key>smooth</key>
                  <false/>
                  <key>x</key>
                  <integer>175</integer>
                  <key>y</key>
                  <integer>330</integer>
                </dict>
                <dict>
                  <key>smooth</key>
                  <false/>
                  <key>x</key>
                  <integer>195</integer>
                  <key>y</key>
                  <integer>360</integer>
                </dict>
                <dict>
                  <key>segmentType</key>
                  <string>curve</string>
                  <key>smooth</key>
                  <true/>
                  <key>x</key>
                  <integer>275</integer>
                  <key>y</key>
                  <integer>360</integer>
                </dict>
                <dict>
                  <key>smooth</key>
                  <false/>
                  <key>x</key>
                  <integer>335</integer>
                  <key>y</key>
                  <integer>360</integer>
                </dict>
                <dict>
                  <key>smooth</key>
                  <false/>
                  <key>x</key>
                  <integer>375</integer>
                  <key>y</key>
                  <integer>330</integer>
                </dict>
                <dict>
                  <key>segmentType</key>
                  <string>curve</string>
                  <key>smooth</key>
                  <false/>
                  <key>x</key>
                  <integer>375</integer>
                  <key>y</key>
                  <integer>260</integer>
                </dict>
                <dict>
                  <key>segmentType</key>
                  <string>line</string>
                  <key>smooth</key>
                  <false/>
                  <key>x</key>
                  <integer>375</integer>
                  <key>y</key>
                  <integer>250</integer>
                </dict>
                <dict>
                  <key>segmentType</key>
                  <string>line</string>
                  <key>smooth</key>
                  <false/>
                  <key>x</key>
                  <integer>525</integer>
                  <key>y</key>
                  <integer>250</integer>
                </dict>
                <dict>
                  <key>segmentType</key>
                  <string>line</string>
                  <key>smooth</key>
                  <false/>
                  <key>x</key>
                  <integer>525</integer>
                  <key>y</key>
                  <integer>290</integer>
                </dict>
                <dict>
                  <key>smooth</key>
                  <false/>
                  <key>x</key>
                  <integer>525</integer>
                  <key>y</key>
                  <integer>440</integer>
                </dict>
                <dict>
                  <key>smooth</key>
                  <false/>
                  <key>x</key>
                  <integer>455</integer>
                  <key>y</key>
                  <integer>510</integer>
                </dict>
                <dict>
                  <key>segmentType</key>
                  <string>curve</string>
                  <key>smooth</key>
                  <false/>
                  <key>x</key>
                  <integer>335</integer>
                  <key>y</key>
                  <integer>510</integer>
                </dict>
              </array>
            </dict>
          </array>
          <key>lib</key>
          <dict>
          </dict>
          <key>name</key>
          <string>p</string>
          <key>unicodes</key>
          <array>
          </array>
          <key>width</key>
          <integer>550</integer>
        </dict>
      </dict>
      <key>com.typemytype.robofont.mark</key>
      <array>
        <real>0.5569</real>
        <real>1.0</real>
        <real>0.7255</real>
        <real>1.0</real>
      </array>
    </dict>
  </lib>
</glyph>
