<?xml version="1.0" encoding="UTF-8"?>
<glyph name="s" format="1">
  <advance width="550"/>
  <unicode hex="0073"/>
  <outline>
    <contour>
      <point x="275" y="195" type="curve" smooth="yes"/>
      <point x="325" y="190"/>
      <point x="335" y="185"/>
      <point x="335" y="170" type="curve"/>
      <point x="335" y="155"/>
      <point x="320" y="150"/>
      <point x="275" y="150" type="curve" smooth="yes"/>
      <point x="235" y="150"/>
      <point x="225" y="150"/>
      <point x="225" y="165" type="curve"/>
      <point x="225" y="175" type="line"/>
      <point x="25" y="175" type="line"/>
      <point x="25" y="130" type="line"/>
      <point x="25" y="40"/>
      <point x="85" y="-10"/>
      <point x="275" y="-10" type="curve" smooth="yes"/>
      <point x="455" y="-10"/>
      <point x="535" y="50"/>
      <point x="535" y="150" type="curve"/>
      <point x="535" y="265"/>
      <point x="475" y="285"/>
      <point x="275" y="305" type="curve" smooth="yes"/>
      <point x="225" y="310"/>
      <point x="215" y="315"/>
      <point x="215" y="330" type="curve"/>
      <point x="215" y="345"/>
      <point x="230" y="350"/>
      <point x="275" y="350" type="curve" smooth="yes"/>
      <point x="315" y="350"/>
      <point x="325" y="350"/>
      <point x="325" y="335" type="curve"/>
      <point x="325" y="325" type="line"/>
      <point x="525" y="325" type="line"/>
      <point x="525" y="370" type="line"/>
      <point x="525" y="460"/>
      <point x="465" y="510"/>
      <point x="275" y="510" type="curve" smooth="yes"/>
      <point x="95" y="510"/>
      <point x="15" y="450"/>
      <point x="15" y="350" type="curve"/>
      <point x="15" y="235"/>
      <point x="75" y="215"/>
    </contour>
  </outline>
  <lib>
    <dict>
      <key>com.typemytype.robofont.layerData</key>
      <dict>
        <key>background</key>
        <dict>
          <key>anchors</key>
          <array>
          </array>
          <key>components</key>
          <array>
          </array>
          <key>contours</key>
          <array>
            <dict>
              <key>points</key>
              <array>
                <dict>
                  <key>segmentType</key>
                  <string>curve</string>
                  <key>smooth</key>
                  <false/>
                  <key>x</key>
                  <integer>275</integer>
                  <key>y</key>
                  <integer>195</integer>
                </dict>
                <dict>
                  <key>smooth</key>
                  <false/>
                  <key>x</key>
                  <integer>375</integer>
                  <key>y</key>
                  <integer>190</integer>
                </dict>
                <dict>
                  <key>smooth</key>
                  <false/>
                  <key>x</key>
                  <integer>385</integer>
                  <key>y</key>
                  <integer>185</integer>
                </dict>
                <dict>
                  <key>segmentType</key>
                  <string>curve</string>
                  <key>smooth</key>
                  <true/>
                  <key>x</key>
                  <integer>385</integer>
                  <key>y</key>
                  <integer>165</integer>
                </dict>
                <dict>
                  <key>smooth</key>
                  <false/>
                  <key>x</key>
                  <integer>385</integer>
                  <key>y</key>
                  <integer>145</integer>
                </dict>
                <dict>
                  <key>smooth</key>
                  <false/>
                  <key>x</key>
                  <integer>365</integer>
                  <key>y</key>
                  <integer>140</integer>
                </dict>
                <dict>
                  <key>segmentType</key>
                  <string>curve</string>
                  <key>smooth</key>
                  <true/>
                  <key>x</key>
                  <integer>275</integer>
                  <key>y</key>
                  <integer>140</integer>
                </dict>
                <dict>
                  <key>smooth</key>
                  <false/>
                  <key>x</key>
                  <integer>195</integer>
                  <key>y</key>
                  <integer>140</integer>
                </dict>
                <dict>
                  <key>smooth</key>
                  <false/>
                  <key>x</key>
                  <integer>175</integer>
                  <key>y</key>
                  <integer>145</integer>
                </dict>
                <dict>
                  <key>segmentType</key>
                  <string>curve</string>
                  <key>smooth</key>
                  <false/>
                  <key>x</key>
                  <integer>175</integer>
                  <key>y</key>
                  <integer>160</integer>
                </dict>
                <dict>
                  <key>segmentType</key>
                  <string>line</string>
                  <key>smooth</key>
                  <false/>
                  <key>x</key>
                  <integer>175</integer>
                  <key>y</key>
                  <integer>175</integer>
                </dict>
                <dict>
                  <key>segmentType</key>
                  <string>line</string>
                  <key>smooth</key>
                  <false/>
                  <key>x</key>
                  <integer>25</integer>
                  <key>y</key>
                  <integer>175</integer>
                </dict>
                <dict>
                  <key>segmentType</key>
                  <string>line</string>
                  <key>smooth</key>
                  <false/>
                  <key>x</key>
                  <integer>25</integer>
                  <key>y</key>
                  <integer>130</integer>
                </dict>
                <dict>
                  <key>smooth</key>
                  <false/>
                  <key>x</key>
                  <integer>25</integer>
                  <key>y</key>
                  <integer>40</integer>
                </dict>
                <dict>
                  <key>smooth</key>
                  <false/>
                  <key>x</key>
                  <integer>85</integer>
                  <key>y</key>
                  <integer>-10</integer>
                </dict>
                <dict>
                  <key>segmentType</key>
                  <string>curve</string>
                  <key>smooth</key>
                  <true/>
                  <key>x</key>
                  <integer>275</integer>
                  <key>y</key>
                  <integer>-10</integer>
                </dict>
                <dict>
                  <key>smooth</key>
                  <false/>
                  <key>x</key>
                  <integer>455</integer>
                  <key>y</key>
                  <integer>-10</integer>
                </dict>
                <dict>
                  <key>smooth</key>
                  <false/>
                  <key>x</key>
                  <integer>535</integer>
                  <key>y</key>
                  <integer>50</integer>
                </dict>
                <dict>
                  <key>segmentType</key>
                  <string>curve</string>
                  <key>smooth</key>
                  <false/>
                  <key>x</key>
                  <integer>535</integer>
                  <key>y</key>
                  <integer>150</integer>
                </dict>
                <dict>
                  <key>smooth</key>
                  <false/>
                  <key>x</key>
                  <integer>535</integer>
                  <key>y</key>
                  <integer>255</integer>
                </dict>
                <dict>
                  <key>smooth</key>
                  <false/>
                  <key>x</key>
                  <integer>475</integer>
                  <key>y</key>
                  <integer>295</integer>
                </dict>
                <dict>
                  <key>segmentType</key>
                  <string>curve</string>
                  <key>smooth</key>
                  <false/>
                  <key>x</key>
                  <integer>275</integer>
                  <key>y</key>
                  <integer>305</integer>
                </dict>
                <dict>
                  <key>smooth</key>
                  <false/>
                  <key>x</key>
                  <integer>175</integer>
                  <key>y</key>
                  <integer>310</integer>
                </dict>
                <dict>
                  <key>smooth</key>
                  <false/>
                  <key>x</key>
                  <integer>165</integer>
                  <key>y</key>
                  <integer>315</integer>
                </dict>
                <dict>
                  <key>segmentType</key>
                  <string>curve</string>
                  <key>smooth</key>
                  <true/>
                  <key>x</key>
                  <integer>165</integer>
                  <key>y</key>
                  <integer>335</integer>
                </dict>
                <dict>
                  <key>smooth</key>
                  <false/>
                  <key>x</key>
                  <integer>165</integer>
                  <key>y</key>
                  <integer>355</integer>
                </dict>
                <dict>
                  <key>smooth</key>
                  <false/>
                  <key>x</key>
                  <integer>185</integer>
                  <key>y</key>
                  <integer>360</integer>
                </dict>
                <dict>
                  <key>segmentType</key>
                  <string>curve</string>
                  <key>smooth</key>
                  <true/>
                  <key>x</key>
                  <integer>275</integer>
                  <key>y</key>
                  <integer>360</integer>
                </dict>
                <dict>
                  <key>smooth</key>
                  <false/>
                  <key>x</key>
                  <integer>355</integer>
                  <key>y</key>
                  <integer>360</integer>
                </dict>
                <dict>
                  <key>smooth</key>
                  <false/>
                  <key>x</key>
                  <integer>375</integer>
                  <key>y</key>
                  <integer>355</integer>
                </dict>
                <dict>
                  <key>segmentType</key>
                  <string>curve</string>
                  <key>smooth</key>
                  <false/>
                  <key>x</key>
                  <integer>375</integer>
                  <key>y</key>
                  <integer>340</integer>
                </dict>
                <dict>
                  <key>segmentType</key>
                  <string>line</string>
                  <key>smooth</key>
                  <false/>
                  <key>x</key>
                  <integer>375</integer>
                  <key>y</key>
                  <integer>325</integer>
                </dict>
                <dict>
                  <key>segmentType</key>
                  <string>line</string>
                  <key>smooth</key>
                  <false/>
                  <key>x</key>
                  <integer>525</integer>
                  <key>y</key>
                  <integer>325</integer>
                </dict>
                <dict>
                  <key>segmentType</key>
                  <string>line</string>
                  <key>smooth</key>
                  <false/>
                  <key>x</key>
                  <integer>525</integer>
                  <key>y</key>
                  <integer>370</integer>
                </dict>
                <dict>
                  <key>smooth</key>
                  <false/>
                  <key>x</key>
                  <integer>525</integer>
                  <key>y</key>
                  <integer>460</integer>
                </dict>
                <dict>
                  <key>smooth</key>
                  <false/>
                  <key>x</key>
                  <integer>465</integer>
                  <key>y</key>
                  <integer>510</integer>
                </dict>
                <dict>
                  <key>segmentType</key>
                  <string>curve</string>
                  <key>smooth</key>
                  <true/>
                  <key>x</key>
                  <integer>275</integer>
                  <key>y</key>
                  <integer>510</integer>
                </dict>
                <dict>
                  <key>smooth</key>
                  <false/>
                  <key>x</key>
                  <integer>95</integer>
                  <key>y</key>
                  <integer>510</integer>
                </dict>
                <dict>
                  <key>smooth</key>
                  <false/>
                  <key>x</key>
                  <integer>15</integer>
                  <key>y</key>
                  <integer>450</integer>
                </dict>
                <dict>
                  <key>segmentType</key>
                  <string>curve</string>
                  <key>smooth</key>
                  <false/>
                  <key>x</key>
                  <integer>15</integer>
                  <key>y</key>
                  <integer>350</integer>
                </dict>
                <dict>
                  <key>smooth</key>
                  <false/>
                  <key>x</key>
                  <integer>15</integer>
                  <key>y</key>
                  <integer>245</integer>
                </dict>
                <dict>
                  <key>smooth</key>
                  <false/>
                  <key>x</key>
                  <integer>75</integer>
                  <key>y</key>
                  <integer>205</integer>
                </dict>
              </array>
            </dict>
          </array>
          <key>lib</key>
          <dict>
          </dict>
          <key>name</key>
          <string>s</string>
          <key>unicodes</key>
          <array>
          </array>
          <key>width</key>
          <integer>550</integer>
        </dict>
      </dict>
      <key>com.typemytype.robofont.mark</key>
      <array>
        <real>0.5569</real>
        <real>1.0</real>
        <real>0.7255</real>
        <real>1.0</real>
      </array>
    </dict>
  </lib>
</glyph>
