<?xml version="1.0" encoding="UTF-8"?>
<glyph name="braceright" format="1">
  <advance width="200"/>
  <unicode hex="007D"/>
  <outline>
    <component base="braceleft" xScale="-1.0" xyScale="5.55111512313e-17" yxScale="-5.55111512313e-17" yScale="-1.0" xOffset="200" yOffset="500"/>
  </outline>
  <lib>
    <dict>
      <key>com.typemytype.robofont.layerData</key>
      <dict>
        <key>background</key>
        <dict>
          <key>anchors</key>
          <array>
          </array>
          <key>components</key>
          <array>
          </array>
          <key>contours</key>
          <array>
          </array>
          <key>lib</key>
          <dict>
          </dict>
          <key>name</key>
          <string>braceright</string>
          <key>unicodes</key>
          <array>
          </array>
          <key>width</key>
          <integer>200</integer>
        </dict>
      </dict>
    </dict>
  </lib>
</glyph>
