<?xml version="1.0" encoding="UTF-8"?>
<glyph name="question" format="1">
  <advance width="200"/>
  <unicode hex="003F"/>
  <outline>
    <contour>
      <point x="50" y="0" type="line"/>
      <point x="150" y="0" type="line"/>
      <point x="150" y="100" type="line"/>
      <point x="50" y="100" type="line"/>
    </contour>
    <contour>
      <point x="60" y="300" type="curve" smooth="yes"/>
      <point x="70" y="200" type="line"/>
      <point x="130" y="200" type="line"/>
      <point x="140" y="300" type="line" smooth="yes"/>
      <point x="150" y="410"/>
      <point x="250" y="460"/>
      <point x="250" y="560" type="curve" smooth="yes"/>
      <point x="250" y="650"/>
      <point x="180" y="710"/>
      <point x="100" y="710" type="curve" smooth="yes"/>
      <point x="10" y="710"/>
      <point x="-50" y="660"/>
      <point x="-50" y="560" type="curve"/>
      <point x="-50" y="500" type="line"/>
      <point x="50" y="500" type="line"/>
      <point x="50" y="560" type="line"/>
      <point x="50" y="600"/>
      <point x="70" y="610"/>
      <point x="100" y="610" type="curve" smooth="yes"/>
      <point x="130" y="610"/>
      <point x="150" y="600"/>
      <point x="150" y="570" type="curve" smooth="yes"/>
      <point x="150" y="510"/>
      <point x="50" y="430"/>
    </contour>
  </outline>
  <lib>
    <dict>
      <key>com.typemytype.robofont.layerData</key>
      <dict>
        <key>background</key>
        <dict>
          <key>anchors</key>
          <array>
          </array>
          <key>components</key>
          <array>
          </array>
          <key>contours</key>
          <array>
            <dict>
              <key>points</key>
              <array>
                <dict>
                  <key>segmentType</key>
                  <string>curve</string>
                  <key>smooth</key>
                  <false/>
                  <key>x</key>
                  <integer>-50</integer>
                  <key>y</key>
                  <integer>340</integer>
                </dict>
                <dict>
                  <key>segmentType</key>
                  <string>line</string>
                  <key>smooth</key>
                  <false/>
                  <key>x</key>
                  <integer>50</integer>
                  <key>y</key>
                  <integer>330</integer>
                </dict>
                <dict>
                  <key>smooth</key>
                  <false/>
                  <key>x</key>
                  <integer>50</integer>
                  <key>y</key>
                  <integer>390</integer>
                </dict>
                <dict>
                  <key>smooth</key>
                  <false/>
                  <key>x</key>
                  <integer>250</integer>
                  <key>y</key>
                  <integer>430</integer>
                </dict>
                <dict>
                  <key>segmentType</key>
                  <string>curve</string>
                  <key>smooth</key>
                  <true/>
                  <key>x</key>
                  <integer>250</integer>
                  <key>y</key>
                  <integer>560</integer>
                </dict>
                <dict>
                  <key>smooth</key>
                  <false/>
                  <key>x</key>
                  <integer>250</integer>
                  <key>y</key>
                  <integer>650</integer>
                </dict>
                <dict>
                  <key>smooth</key>
                  <false/>
                  <key>x</key>
                  <integer>180</integer>
                  <key>y</key>
                  <integer>710</integer>
                </dict>
                <dict>
                  <key>segmentType</key>
                  <string>curve</string>
                  <key>smooth</key>
                  <true/>
                  <key>x</key>
                  <integer>100</integer>
                  <key>y</key>
                  <integer>710</integer>
                </dict>
                <dict>
                  <key>smooth</key>
                  <false/>
                  <key>x</key>
                  <integer>10</integer>
                  <key>y</key>
                  <integer>710</integer>
                </dict>
                <dict>
                  <key>smooth</key>
                  <false/>
                  <key>x</key>
                  <integer>-50</integer>
                  <key>y</key>
                  <integer>660</integer>
                </dict>
                <dict>
                  <key>segmentType</key>
                  <string>curve</string>
                  <key>smooth</key>
                  <false/>
                  <key>x</key>
                  <integer>-50</integer>
                  <key>y</key>
                  <integer>570</integer>
                </dict>
                <dict>
                  <key>segmentType</key>
                  <string>line</string>
                  <key>smooth</key>
                  <false/>
                  <key>x</key>
                  <integer>-50</integer>
                  <key>y</key>
                  <integer>550</integer>
                </dict>
                <dict>
                  <key>segmentType</key>
                  <string>line</string>
                  <key>smooth</key>
                  <false/>
                  <key>x</key>
                  <integer>50</integer>
                  <key>y</key>
                  <integer>550</integer>
                </dict>
                <dict>
                  <key>segmentType</key>
                  <string>line</string>
                  <key>smooth</key>
                  <false/>
                  <key>x</key>
                  <integer>50</integer>
                  <key>y</key>
                  <integer>570</integer>
                </dict>
                <dict>
                  <key>smooth</key>
                  <false/>
                  <key>x</key>
                  <integer>50</integer>
                  <key>y</key>
                  <integer>610</integer>
                </dict>
                <dict>
                  <key>smooth</key>
                  <false/>
                  <key>x</key>
                  <integer>70</integer>
                  <key>y</key>
                  <integer>610</integer>
                </dict>
                <dict>
                  <key>segmentType</key>
                  <string>curve</string>
                  <key>smooth</key>
                  <true/>
                  <key>x</key>
                  <integer>100</integer>
                  <key>y</key>
                  <integer>610</integer>
                </dict>
                <dict>
                  <key>smooth</key>
                  <false/>
                  <key>x</key>
                  <integer>130</integer>
                  <key>y</key>
                  <integer>610</integer>
                </dict>
                <dict>
                  <key>smooth</key>
                  <false/>
                  <key>x</key>
                  <integer>150</integer>
                  <key>y</key>
                  <integer>600</integer>
                </dict>
                <dict>
                  <key>segmentType</key>
                  <string>curve</string>
                  <key>smooth</key>
                  <true/>
                  <key>x</key>
                  <integer>150</integer>
                  <key>y</key>
                  <integer>570</integer>
                </dict>
                <dict>
                  <key>smooth</key>
                  <false/>
                  <key>x</key>
                  <integer>150</integer>
                  <key>y</key>
                  <integer>510</integer>
                </dict>
                <dict>
                  <key>smooth</key>
                  <false/>
                  <key>x</key>
                  <integer>-50</integer>
                  <key>y</key>
                  <integer>470</integer>
                </dict>
              </array>
            </dict>
          </array>
          <key>lib</key>
          <dict>
          </dict>
          <key>name</key>
          <string>question</string>
          <key>unicodes</key>
          <array>
          </array>
          <key>width</key>
          <integer>200</integer>
        </dict>
      </dict>
    </dict>
  </lib>
</glyph>
