<?xml version="1.0" encoding="UTF-8"?>
<glyph name="Eth.small" format="1">
  <advance width="600"/>
  <outline>
    <contour>
      <point x="250" y="225" type="line"/>
      <point x="250" y="275" type="line"/>
      <point x="0" y="275" type="line"/>
      <point x="0" y="225" type="line"/>
    </contour>
    <component base="D.small"/>
  </outline>
</glyph>
