<?xml version="1.0" encoding="UTF-8"?>
<glyph name="aacute.alt" format="1">
  <advance width="600"/>
  <outline>
    <component base="a.alt"/>
    <component base="acute" xOffset="230"/>
  </outline>
</glyph>
