<?xml version="1.0" encoding="UTF-8"?>
<glyph name="at" format="1">
  <advance width="600"/>
  <unicode hex="0040"/>
  <outline>
    <contour>
      <point x="325" y="340" type="curve"/>
      <point x="325" y="360" type="line"/>
      <point x="325.0" y="440.0"/>
      <point x="355.0" y="460.0"/>
      <point x="400" y="460" type="curve" smooth="yes"/>
      <point x="445.0" y="460.0"/>
      <point x="475.0" y="440.0"/>
      <point x="475" y="360" type="curve"/>
      <point x="475" y="470" type="line"/>
      <point x="464.30172327" y="491.396553461"/>
      <point x="435" y="510"/>
      <point x="385" y="510" type="curve" smooth="yes"/>
      <point x="315" y="510"/>
      <point x="275" y="460"/>
      <point x="275" y="360" type="curve" smooth="yes"/>
      <point x="275" y="340" type="line" smooth="yes"/>
      <point x="275" y="240"/>
      <point x="315" y="190"/>
      <point x="385" y="190" type="curve" smooth="yes"/>
      <point x="435" y="190"/>
      <point x="470" y="210"/>
      <point x="480" y="230" type="curve"/>
      <point x="475" y="340" type="line"/>
      <point x="475.0" y="260.0"/>
      <point x="445.0" y="240.0"/>
      <point x="400" y="240" type="curve" smooth="yes"/>
      <point x="355.0" y="240.0"/>
      <point x="325.0" y="260.0"/>
    </contour>
    <contour>
      <point x="300" y="50" type="line"/>
      <point x="195" y="50"/>
      <point x="125" y="115"/>
      <point x="125" y="250" type="curve" smooth="yes"/>
      <point x="125" y="450" type="line" smooth="yes"/>
      <point x="125" y="585"/>
      <point x="195" y="650"/>
      <point x="300" y="650" type="curve"/>
      <point x="300" y="650"/>
      <point x="350" y="650"/>
      <point x="350" y="650" type="curve"/>
      <point x="425" y="650"/>
      <point x="475" y="615"/>
      <point x="475" y="535" type="curve" smooth="yes"/>
      <point x="475" y="265" type="line"/>
      <point x="480" y="230" type="line"/>
      <point x="485" y="200" type="line"/>
      <point x="525" y="200" type="line"/>
      <point x="525" y="535" type="line" smooth="yes"/>
      <point x="525" y="640"/>
      <point x="455" y="700"/>
      <point x="350" y="700" type="curve"/>
      <point x="350" y="700"/>
      <point x="300" y="700"/>
      <point x="300" y="700" type="curve"/>
      <point x="165" y="700"/>
      <point x="75" y="610"/>
      <point x="75" y="450" type="curve" smooth="yes"/>
      <point x="75" y="250" type="line"/>
      <point x="75" y="90"/>
      <point x="165" y="0"/>
      <point x="300" y="0" type="curve"/>
      <point x="300" y="0"/>
      <point x="550" y="0"/>
      <point x="550" y="0" type="curve"/>
      <point x="550" y="0"/>
      <point x="550" y="50"/>
      <point x="550" y="50" type="curve"/>
    </contour>
  </outline>
  <lib>
    <dict>
      <key>com.typemytype.robofont.layerData</key>
      <dict>
        <key>background</key>
        <dict>
          <key>anchors</key>
          <array>
          </array>
          <key>components</key>
          <array>
          </array>
          <key>contours</key>
          <array>
            <dict>
              <key>points</key>
              <array>
                <dict>
                  <key>segmentType</key>
                  <string>curve</string>
                  <key>smooth</key>
                  <false/>
                  <key>x</key>
                  <integer>350</integer>
                  <key>y</key>
                  <integer>340</integer>
                </dict>
                <dict>
                  <key>segmentType</key>
                  <string>line</string>
                  <key>smooth</key>
                  <false/>
                  <key>x</key>
                  <integer>350</integer>
                  <key>y</key>
                  <integer>360</integer>
                </dict>
                <dict>
                  <key>smooth</key>
                  <false/>
                  <key>x</key>
                  <integer>350</integer>
                  <key>y</key>
                  <integer>400</integer>
                </dict>
                <dict>
                  <key>smooth</key>
                  <false/>
                  <key>x</key>
                  <integer>370</integer>
                  <key>y</key>
                  <integer>410</integer>
                </dict>
                <dict>
                  <key>segmentType</key>
                  <string>curve</string>
                  <key>smooth</key>
                  <true/>
                  <key>x</key>
                  <integer>400</integer>
                  <key>y</key>
                  <integer>410</integer>
                </dict>
                <dict>
                  <key>smooth</key>
                  <false/>
                  <key>x</key>
                  <integer>430</integer>
                  <key>y</key>
                  <integer>410</integer>
                </dict>
                <dict>
                  <key>smooth</key>
                  <false/>
                  <key>x</key>
                  <integer>450</integer>
                  <key>y</key>
                  <integer>400</integer>
                </dict>
                <dict>
                  <key>segmentType</key>
                  <string>curve</string>
                  <key>smooth</key>
                  <false/>
                  <key>x</key>
                  <integer>450</integer>
                  <key>y</key>
                  <integer>360</integer>
                </dict>
                <dict>
                  <key>segmentType</key>
                  <string>line</string>
                  <key>smooth</key>
                  <false/>
                  <key>x</key>
                  <integer>450</integer>
                  <key>y</key>
                  <integer>470</integer>
                </dict>
                <dict>
                  <key>smooth</key>
                  <false/>
                  <key>x</key>
                  <integer>440</integer>
                  <key>y</key>
                  <integer>490</integer>
                </dict>
                <dict>
                  <key>smooth</key>
                  <false/>
                  <key>x</key>
                  <integer>420</integer>
                  <key>y</key>
                  <integer>510</integer>
                </dict>
                <dict>
                  <key>segmentType</key>
                  <string>curve</string>
                  <key>smooth</key>
                  <true/>
                  <key>x</key>
                  <integer>370</integer>
                  <key>y</key>
                  <integer>510</integer>
                </dict>
                <dict>
                  <key>smooth</key>
                  <false/>
                  <key>x</key>
                  <integer>300</integer>
                  <key>y</key>
                  <integer>510</integer>
                </dict>
                <dict>
                  <key>smooth</key>
                  <false/>
                  <key>x</key>
                  <integer>250</integer>
                  <key>y</key>
                  <integer>460</integer>
                </dict>
                <dict>
                  <key>segmentType</key>
                  <string>curve</string>
                  <key>smooth</key>
                  <false/>
                  <key>x</key>
                  <integer>250</integer>
                  <key>y</key>
                  <integer>390</integer>
                </dict>
                <dict>
                  <key>segmentType</key>
                  <string>line</string>
                  <key>smooth</key>
                  <false/>
                  <key>x</key>
                  <integer>250</integer>
                  <key>y</key>
                  <integer>310</integer>
                </dict>
                <dict>
                  <key>smooth</key>
                  <false/>
                  <key>x</key>
                  <integer>250</integer>
                  <key>y</key>
                  <integer>240</integer>
                </dict>
                <dict>
                  <key>smooth</key>
                  <false/>
                  <key>x</key>
                  <integer>300</integer>
                  <key>y</key>
                  <integer>190</integer>
                </dict>
                <dict>
                  <key>segmentType</key>
                  <string>curve</string>
                  <key>smooth</key>
                  <true/>
                  <key>x</key>
                  <integer>370</integer>
                  <key>y</key>
                  <integer>190</integer>
                </dict>
                <dict>
                  <key>smooth</key>
                  <false/>
                  <key>x</key>
                  <integer>420</integer>
                  <key>y</key>
                  <integer>190</integer>
                </dict>
                <dict>
                  <key>smooth</key>
                  <false/>
                  <key>x</key>
                  <integer>440</integer>
                  <key>y</key>
                  <integer>210</integer>
                </dict>
                <dict>
                  <key>segmentType</key>
                  <string>curve</string>
                  <key>smooth</key>
                  <false/>
                  <key>x</key>
                  <integer>450</integer>
                  <key>y</key>
                  <integer>230</integer>
                </dict>
                <dict>
                  <key>segmentType</key>
                  <string>line</string>
                  <key>smooth</key>
                  <false/>
                  <key>x</key>
                  <integer>450</integer>
                  <key>y</key>
                  <integer>340</integer>
                </dict>
                <dict>
                  <key>smooth</key>
                  <false/>
                  <key>x</key>
                  <integer>450</integer>
                  <key>y</key>
                  <integer>300</integer>
                </dict>
                <dict>
                  <key>smooth</key>
                  <false/>
                  <key>x</key>
                  <integer>430</integer>
                  <key>y</key>
                  <integer>290</integer>
                </dict>
                <dict>
                  <key>segmentType</key>
                  <string>curve</string>
                  <key>smooth</key>
                  <true/>
                  <key>x</key>
                  <integer>400</integer>
                  <key>y</key>
                  <integer>290</integer>
                </dict>
                <dict>
                  <key>smooth</key>
                  <false/>
                  <key>x</key>
                  <integer>370</integer>
                  <key>y</key>
                  <integer>290</integer>
                </dict>
                <dict>
                  <key>smooth</key>
                  <false/>
                  <key>x</key>
                  <integer>350</integer>
                  <key>y</key>
                  <integer>300</integer>
                </dict>
              </array>
            </dict>
            <dict>
              <key>points</key>
              <array>
                <dict>
                  <key>segmentType</key>
                  <string>line</string>
                  <key>smooth</key>
                  <false/>
                  <key>x</key>
                  <integer>300</integer>
                  <key>y</key>
                  <integer>100</integer>
                </dict>
                <dict>
                  <key>smooth</key>
                  <false/>
                  <key>x</key>
                  <integer>210</integer>
                  <key>y</key>
                  <integer>100</integer>
                </dict>
                <dict>
                  <key>smooth</key>
                  <false/>
                  <key>x</key>
                  <integer>150</integer>
                  <key>y</key>
                  <integer>150</integer>
                </dict>
                <dict>
                  <key>segmentType</key>
                  <string>curve</string>
                  <key>smooth</key>
                  <true/>
                  <key>x</key>
                  <integer>150</integer>
                  <key>y</key>
                  <integer>250</integer>
                </dict>
                <dict>
                  <key>segmentType</key>
                  <string>line</string>
                  <key>smooth</key>
                  <true/>
                  <key>x</key>
                  <integer>150</integer>
                  <key>y</key>
                  <integer>450</integer>
                </dict>
                <dict>
                  <key>smooth</key>
                  <false/>
                  <key>x</key>
                  <integer>150</integer>
                  <key>y</key>
                  <integer>550</integer>
                </dict>
                <dict>
                  <key>smooth</key>
                  <false/>
                  <key>x</key>
                  <integer>210</integer>
                  <key>y</key>
                  <integer>600</integer>
                </dict>
                <dict>
                  <key>segmentType</key>
                  <string>curve</string>
                  <key>smooth</key>
                  <false/>
                  <key>x</key>
                  <integer>300</integer>
                  <key>y</key>
                  <integer>600</integer>
                </dict>
                <dict>
                  <key>smooth</key>
                  <false/>
                  <key>x</key>
                  <integer>300</integer>
                  <key>y</key>
                  <integer>600</integer>
                </dict>
                <dict>
                  <key>smooth</key>
                  <false/>
                  <key>x</key>
                  <integer>400</integer>
                  <key>y</key>
                  <integer>600</integer>
                </dict>
                <dict>
                  <key>segmentType</key>
                  <string>curve</string>
                  <key>smooth</key>
                  <false/>
                  <key>x</key>
                  <integer>400</integer>
                  <key>y</key>
                  <integer>600</integer>
                </dict>
                <dict>
                  <key>smooth</key>
                  <false/>
                  <key>x</key>
                  <integer>430</integer>
                  <key>y</key>
                  <integer>600</integer>
                </dict>
                <dict>
                  <key>smooth</key>
                  <false/>
                  <key>x</key>
                  <integer>450</integer>
                  <key>y</key>
                  <integer>590</integer>
                </dict>
                <dict>
                  <key>segmentType</key>
                  <string>curve</string>
                  <key>smooth</key>
                  <false/>
                  <key>x</key>
                  <integer>450</integer>
                  <key>y</key>
                  <integer>550</integer>
                </dict>
                <dict>
                  <key>segmentType</key>
                  <string>line</string>
                  <key>smooth</key>
                  <false/>
                  <key>x</key>
                  <integer>450</integer>
                  <key>y</key>
                  <integer>230</integer>
                </dict>
                <dict>
                  <key>segmentType</key>
                  <string>line</string>
                  <key>smooth</key>
                  <false/>
                  <key>x</key>
                  <integer>460</integer>
                  <key>y</key>
                  <integer>200</integer>
                </dict>
                <dict>
                  <key>segmentType</key>
                  <string>line</string>
                  <key>smooth</key>
                  <false/>
                  <key>x</key>
                  <integer>550</integer>
                  <key>y</key>
                  <integer>200</integer>
                </dict>
                <dict>
                  <key>segmentType</key>
                  <string>line</string>
                  <key>smooth</key>
                  <false/>
                  <key>x</key>
                  <integer>550</integer>
                  <key>y</key>
                  <integer>550</integer>
                </dict>
                <dict>
                  <key>smooth</key>
                  <false/>
                  <key>x</key>
                  <integer>550</integer>
                  <key>y</key>
                  <integer>640</integer>
                </dict>
                <dict>
                  <key>smooth</key>
                  <false/>
                  <key>x</key>
                  <integer>480</integer>
                  <key>y</key>
                  <integer>700</integer>
                </dict>
                <dict>
                  <key>segmentType</key>
                  <string>curve</string>
                  <key>smooth</key>
                  <false/>
                  <key>x</key>
                  <integer>400</integer>
                  <key>y</key>
                  <integer>700</integer>
                </dict>
                <dict>
                  <key>smooth</key>
                  <false/>
                  <key>x</key>
                  <integer>400</integer>
                  <key>y</key>
                  <integer>700</integer>
                </dict>
                <dict>
                  <key>smooth</key>
                  <false/>
                  <key>x</key>
                  <integer>300</integer>
                  <key>y</key>
                  <integer>700</integer>
                </dict>
                <dict>
                  <key>segmentType</key>
                  <string>curve</string>
                  <key>smooth</key>
                  <false/>
                  <key>x</key>
                  <integer>300</integer>
                  <key>y</key>
                  <integer>700</integer>
                </dict>
                <dict>
                  <key>smooth</key>
                  <false/>
                  <key>x</key>
                  <integer>160</integer>
                  <key>y</key>
                  <integer>700</integer>
                </dict>
                <dict>
                  <key>smooth</key>
                  <false/>
                  <key>x</key>
                  <integer>50</integer>
                  <key>y</key>
                  <integer>600</integer>
                </dict>
                <dict>
                  <key>segmentType</key>
                  <string>curve</string>
                  <key>smooth</key>
                  <false/>
                  <key>x</key>
                  <integer>50</integer>
                  <key>y</key>
                  <integer>450</integer>
                </dict>
                <dict>
                  <key>segmentType</key>
                  <string>line</string>
                  <key>smooth</key>
                  <false/>
                  <key>x</key>
                  <integer>50</integer>
                  <key>y</key>
                  <integer>250</integer>
                </dict>
                <dict>
                  <key>smooth</key>
                  <false/>
                  <key>x</key>
                  <integer>50</integer>
                  <key>y</key>
                  <integer>100</integer>
                </dict>
                <dict>
                  <key>smooth</key>
                  <false/>
                  <key>x</key>
                  <integer>160</integer>
                  <key>y</key>
                  <integer>0</integer>
                </dict>
                <dict>
                  <key>segmentType</key>
                  <string>curve</string>
                  <key>smooth</key>
                  <false/>
                  <key>x</key>
                  <integer>300</integer>
                  <key>y</key>
                  <integer>0</integer>
                </dict>
                <dict>
                  <key>smooth</key>
                  <false/>
                  <key>x</key>
                  <integer>300</integer>
                  <key>y</key>
                  <integer>0</integer>
                </dict>
                <dict>
                  <key>smooth</key>
                  <false/>
                  <key>x</key>
                  <integer>550</integer>
                  <key>y</key>
                  <integer>0</integer>
                </dict>
                <dict>
                  <key>segmentType</key>
                  <string>curve</string>
                  <key>smooth</key>
                  <false/>
                  <key>x</key>
                  <integer>550</integer>
                  <key>y</key>
                  <integer>0</integer>
                </dict>
                <dict>
                  <key>smooth</key>
                  <false/>
                  <key>x</key>
                  <integer>550</integer>
                  <key>y</key>
                  <integer>0</integer>
                </dict>
                <dict>
                  <key>smooth</key>
                  <false/>
                  <key>x</key>
                  <integer>550</integer>
                  <key>y</key>
                  <integer>100</integer>
                </dict>
                <dict>
                  <key>segmentType</key>
                  <string>curve</string>
                  <key>smooth</key>
                  <false/>
                  <key>x</key>
                  <integer>550</integer>
                  <key>y</key>
                  <integer>100</integer>
                </dict>
              </array>
            </dict>
          </array>
          <key>lib</key>
          <dict>
          </dict>
          <key>name</key>
          <string>at</string>
          <key>unicodes</key>
          <array>
          </array>
          <key>width</key>
          <integer>600</integer>
        </dict>
      </dict>
      <key>com.typemytype.robofont.mark</key>
      <array>
        <real>0.0</real>
        <real>0.0</real>
        <real>1.0</real>
        <real>1.0</real>
      </array>
    </dict>
  </lib>
</glyph>
