<?xml version="1.0" encoding="UTF-8"?>
<glyph name="Igrave" format="1">
  <advance width="250"/>
  <unicode hex="00CC"/>
  <outline>
    <component base="I"/>
    <component base="grave" xOffset="3" yOffset="150"/>
  </outline>
</glyph>
