<?xml version="1.0" encoding="UTF-8"?>
<glyph name="m.alt2" format="1">
  <advance width="800"/>
  <outline>
    <contour>
      <point x="50" y="0" type="line"/>
      <point x="200" y="0" type="line"/>
      <point x="200" y="420" type="line"/>
      <point x="190" y="500" type="line"/>
      <point x="50" y="500" type="line"/>
    </contour>
    <contour>
      <point x="200" y="420" type="curve"/>
      <point x="200" y="285" type="line"/>
      <point x="200.0" y="335.0"/>
      <point x="218.0" y="360.0"/>
      <point x="260" y="360" type="curve" smooth="yes"/>
      <point x="305.5" y="360.0"/>
      <point x="325.0" y="340.0"/>
      <point x="325" y="285" type="curve"/>
      <point x="325" y="0" type="line"/>
      <point x="475" y="0" type="line"/>
      <point x="475" y="290" type="line"/>
      <point x="475.0" y="450.0"/>
      <point x="425.178571429" y="510.0"/>
      <point x="320" y="510" type="curve"/>
      <point x="250" y="510"/>
      <point x="205.00389362" y="475.042829821"/>
    </contour>
    <contour>
      <point x="455" y="400" type="curve"/>
      <point x="475" y="285" type="line"/>
      <point x="475.0" y="335.0"/>
      <point x="493.0" y="360.0"/>
      <point x="535" y="360" type="curve" smooth="yes"/>
      <point x="580.5" y="360.0"/>
      <point x="600.0" y="340.0"/>
      <point x="600" y="285" type="curve"/>
      <point x="600" y="0" type="line"/>
      <point x="750" y="0" type="line"/>
      <point x="750" y="290" type="line"/>
      <point x="750.0" y="450.0"/>
      <point x="700.178571429" y="510.0"/>
      <point x="595" y="510" type="curve"/>
      <point x="514.230769231" y="510.0"/>
      <point x="460.002348909" y="465.030535814"/>
    </contour>
  </outline>
  <lib>
    <dict>
      <key>com.typemytype.robofont.layerData</key>
      <dict>
        <key>background</key>
        <dict>
          <key>anchors</key>
          <array>
            <dict>
              <key>name</key>
              <string>top</string>
              <key>x</key>
              <real>300.0</real>
              <key>y</key>
              <real>500.0</real>
            </dict>
          </array>
          <key>components</key>
          <array>
          </array>
          <key>contours</key>
          <array>
            <dict>
              <key>points</key>
              <array>
                <dict>
                  <key>segmentType</key>
                  <string>line</string>
                  <key>smooth</key>
                  <false/>
                  <key>x</key>
                  <integer>50</integer>
                  <key>y</key>
                  <integer>0</integer>
                </dict>
                <dict>
                  <key>segmentType</key>
                  <string>line</string>
                  <key>smooth</key>
                  <false/>
                  <key>x</key>
                  <integer>200</integer>
                  <key>y</key>
                  <integer>0</integer>
                </dict>
                <dict>
                  <key>segmentType</key>
                  <string>line</string>
                  <key>smooth</key>
                  <false/>
                  <key>x</key>
                  <integer>200</integer>
                  <key>y</key>
                  <integer>420</integer>
                </dict>
                <dict>
                  <key>segmentType</key>
                  <string>line</string>
                  <key>smooth</key>
                  <false/>
                  <key>x</key>
                  <integer>190</integer>
                  <key>y</key>
                  <integer>500</integer>
                </dict>
                <dict>
                  <key>segmentType</key>
                  <string>line</string>
                  <key>smooth</key>
                  <false/>
                  <key>x</key>
                  <integer>50</integer>
                  <key>y</key>
                  <integer>500</integer>
                </dict>
              </array>
            </dict>
            <dict>
              <key>points</key>
              <array>
                <dict>
                  <key>segmentType</key>
                  <string>curve</string>
                  <key>smooth</key>
                  <false/>
                  <key>x</key>
                  <integer>200</integer>
                  <key>y</key>
                  <integer>420</integer>
                </dict>
                <dict>
                  <key>segmentType</key>
                  <string>line</string>
                  <key>smooth</key>
                  <false/>
                  <key>x</key>
                  <integer>200</integer>
                  <key>y</key>
                  <integer>285</integer>
                </dict>
                <dict>
                  <key>smooth</key>
                  <false/>
                  <key>x</key>
                  <integer>200</integer>
                  <key>y</key>
                  <integer>335</integer>
                </dict>
                <dict>
                  <key>smooth</key>
                  <false/>
                  <key>x</key>
                  <integer>215</integer>
                  <key>y</key>
                  <integer>360</integer>
                </dict>
                <dict>
                  <key>segmentType</key>
                  <string>curve</string>
                  <key>smooth</key>
                  <true/>
                  <key>x</key>
                  <integer>250</integer>
                  <key>y</key>
                  <integer>360</integer>
                </dict>
                <dict>
                  <key>smooth</key>
                  <false/>
                  <key>x</key>
                  <integer>285</integer>
                  <key>y</key>
                  <integer>360</integer>
                </dict>
                <dict>
                  <key>smooth</key>
                  <false/>
                  <key>x</key>
                  <integer>300</integer>
                  <key>y</key>
                  <integer>340</integer>
                </dict>
                <dict>
                  <key>segmentType</key>
                  <string>curve</string>
                  <key>smooth</key>
                  <false/>
                  <key>x</key>
                  <integer>300</integer>
                  <key>y</key>
                  <integer>285</integer>
                </dict>
                <dict>
                  <key>segmentType</key>
                  <string>line</string>
                  <key>smooth</key>
                  <false/>
                  <key>x</key>
                  <integer>300</integer>
                  <key>y</key>
                  <integer>0</integer>
                </dict>
                <dict>
                  <key>segmentType</key>
                  <string>line</string>
                  <key>smooth</key>
                  <false/>
                  <key>x</key>
                  <integer>450</integer>
                  <key>y</key>
                  <integer>0</integer>
                </dict>
                <dict>
                  <key>segmentType</key>
                  <string>line</string>
                  <key>smooth</key>
                  <false/>
                  <key>x</key>
                  <integer>450</integer>
                  <key>y</key>
                  <integer>290</integer>
                </dict>
                <dict>
                  <key>smooth</key>
                  <false/>
                  <key>x</key>
                  <integer>450</integer>
                  <key>y</key>
                  <integer>450</integer>
                </dict>
                <dict>
                  <key>smooth</key>
                  <false/>
                  <key>x</key>
                  <integer>405</integer>
                  <key>y</key>
                  <integer>510</integer>
                </dict>
                <dict>
                  <key>segmentType</key>
                  <string>curve</string>
                  <key>smooth</key>
                  <false/>
                  <key>x</key>
                  <integer>310</integer>
                  <key>y</key>
                  <integer>510</integer>
                </dict>
                <dict>
                  <key>smooth</key>
                  <false/>
                  <key>x</key>
                  <integer>245</integer>
                  <key>y</key>
                  <integer>510</integer>
                </dict>
                <dict>
                  <key>smooth</key>
                  <false/>
                  <key>x</key>
                  <integer>205</integer>
                  <key>y</key>
                  <integer>475</integer>
                </dict>
              </array>
            </dict>
            <dict>
              <key>points</key>
              <array>
                <dict>
                  <key>segmentType</key>
                  <string>curve</string>
                  <key>smooth</key>
                  <false/>
                  <key>x</key>
                  <integer>430</integer>
                  <key>y</key>
                  <integer>400</integer>
                </dict>
                <dict>
                  <key>segmentType</key>
                  <string>line</string>
                  <key>smooth</key>
                  <false/>
                  <key>x</key>
                  <integer>450</integer>
                  <key>y</key>
                  <integer>285</integer>
                </dict>
                <dict>
                  <key>smooth</key>
                  <false/>
                  <key>x</key>
                  <integer>450</integer>
                  <key>y</key>
                  <integer>335</integer>
                </dict>
                <dict>
                  <key>smooth</key>
                  <false/>
                  <key>x</key>
                  <integer>465</integer>
                  <key>y</key>
                  <integer>360</integer>
                </dict>
                <dict>
                  <key>segmentType</key>
                  <string>curve</string>
                  <key>smooth</key>
                  <true/>
                  <key>x</key>
                  <integer>500</integer>
                  <key>y</key>
                  <integer>360</integer>
                </dict>
                <dict>
                  <key>smooth</key>
                  <false/>
                  <key>x</key>
                  <integer>535</integer>
                  <key>y</key>
                  <integer>360</integer>
                </dict>
                <dict>
                  <key>smooth</key>
                  <false/>
                  <key>x</key>
                  <integer>550</integer>
                  <key>y</key>
                  <integer>340</integer>
                </dict>
                <dict>
                  <key>segmentType</key>
                  <string>curve</string>
                  <key>smooth</key>
                  <false/>
                  <key>x</key>
                  <integer>550</integer>
                  <key>y</key>
                  <integer>285</integer>
                </dict>
                <dict>
                  <key>segmentType</key>
                  <string>line</string>
                  <key>smooth</key>
                  <false/>
                  <key>x</key>
                  <integer>550</integer>
                  <key>y</key>
                  <integer>0</integer>
                </dict>
                <dict>
                  <key>segmentType</key>
                  <string>line</string>
                  <key>smooth</key>
                  <false/>
                  <key>x</key>
                  <integer>700</integer>
                  <key>y</key>
                  <integer>0</integer>
                </dict>
                <dict>
                  <key>segmentType</key>
                  <string>line</string>
                  <key>smooth</key>
                  <false/>
                  <key>x</key>
                  <integer>700</integer>
                  <key>y</key>
                  <integer>290</integer>
                </dict>
                <dict>
                  <key>smooth</key>
                  <false/>
                  <key>x</key>
                  <integer>700</integer>
                  <key>y</key>
                  <integer>450</integer>
                </dict>
                <dict>
                  <key>smooth</key>
                  <false/>
                  <key>x</key>
                  <integer>655</integer>
                  <key>y</key>
                  <integer>510</integer>
                </dict>
                <dict>
                  <key>segmentType</key>
                  <string>curve</string>
                  <key>smooth</key>
                  <false/>
                  <key>x</key>
                  <integer>560</integer>
                  <key>y</key>
                  <integer>510</integer>
                </dict>
                <dict>
                  <key>smooth</key>
                  <false/>
                  <key>x</key>
                  <integer>485</integer>
                  <key>y</key>
                  <integer>510</integer>
                </dict>
                <dict>
                  <key>smooth</key>
                  <false/>
                  <key>x</key>
                  <integer>435</integer>
                  <key>y</key>
                  <integer>465</integer>
                </dict>
              </array>
            </dict>
          </array>
          <key>lib</key>
          <dict>
            <key>com.typemytype.robofont.layerData</key>
            <dict>
              <key>background</key>
              <dict>
                <key>anchors</key>
                <array>
                </array>
                <key>components</key>
                <array>
                </array>
                <key>contours</key>
                <array>
                  <dict>
                    <key>points</key>
                    <array>
                      <dict>
                        <key>segmentType</key>
                        <string>line</string>
                        <key>smooth</key>
                        <false/>
                        <key>x</key>
                        <integer>50</integer>
                        <key>y</key>
                        <integer>0</integer>
                      </dict>
                      <dict>
                        <key>segmentType</key>
                        <string>line</string>
                        <key>smooth</key>
                        <false/>
                        <key>x</key>
                        <integer>150</integer>
                        <key>y</key>
                        <integer>0</integer>
                      </dict>
                      <dict>
                        <key>segmentType</key>
                        <string>line</string>
                        <key>smooth</key>
                        <false/>
                        <key>x</key>
                        <integer>150</integer>
                        <key>y</key>
                        <integer>470</integer>
                      </dict>
                      <dict>
                        <key>segmentType</key>
                        <string>line</string>
                        <key>smooth</key>
                        <false/>
                        <key>x</key>
                        <integer>140</integer>
                        <key>y</key>
                        <integer>500</integer>
                      </dict>
                      <dict>
                        <key>segmentType</key>
                        <string>line</string>
                        <key>smooth</key>
                        <false/>
                        <key>x</key>
                        <integer>50</integer>
                        <key>y</key>
                        <integer>500</integer>
                      </dict>
                    </array>
                  </dict>
                  <dict>
                    <key>points</key>
                    <array>
                      <dict>
                        <key>segmentType</key>
                        <string>curve</string>
                        <key>smooth</key>
                        <false/>
                        <key>x</key>
                        <integer>150</integer>
                        <key>y</key>
                        <integer>470</integer>
                      </dict>
                      <dict>
                        <key>segmentType</key>
                        <string>line</string>
                        <key>smooth</key>
                        <false/>
                        <key>x</key>
                        <integer>150</integer>
                        <key>y</key>
                        <integer>360</integer>
                      </dict>
                      <dict>
                        <key>smooth</key>
                        <false/>
                        <key>x</key>
                        <integer>150</integer>
                        <key>y</key>
                        <integer>400</integer>
                      </dict>
                      <dict>
                        <key>smooth</key>
                        <false/>
                        <key>x</key>
                        <integer>170</integer>
                        <key>y</key>
                        <integer>410</integer>
                      </dict>
                      <dict>
                        <key>segmentType</key>
                        <string>curve</string>
                        <key>smooth</key>
                        <true/>
                        <key>x</key>
                        <integer>200</integer>
                        <key>y</key>
                        <integer>410</integer>
                      </dict>
                      <dict>
                        <key>smooth</key>
                        <false/>
                        <key>x</key>
                        <integer>230</integer>
                        <key>y</key>
                        <integer>410</integer>
                      </dict>
                      <dict>
                        <key>smooth</key>
                        <false/>
                        <key>x</key>
                        <integer>250</integer>
                        <key>y</key>
                        <integer>400</integer>
                      </dict>
                      <dict>
                        <key>segmentType</key>
                        <string>curve</string>
                        <key>smooth</key>
                        <false/>
                        <key>x</key>
                        <integer>250</integer>
                        <key>y</key>
                        <integer>360</integer>
                      </dict>
                      <dict>
                        <key>segmentType</key>
                        <string>line</string>
                        <key>smooth</key>
                        <false/>
                        <key>x</key>
                        <integer>250</integer>
                        <key>y</key>
                        <integer>0</integer>
                      </dict>
                      <dict>
                        <key>segmentType</key>
                        <string>line</string>
                        <key>smooth</key>
                        <false/>
                        <key>x</key>
                        <integer>350</integer>
                        <key>y</key>
                        <integer>0</integer>
                      </dict>
                      <dict>
                        <key>segmentType</key>
                        <string>line</string>
                        <key>smooth</key>
                        <false/>
                        <key>x</key>
                        <integer>350</integer>
                        <key>y</key>
                        <integer>390</integer>
                      </dict>
                      <dict>
                        <key>smooth</key>
                        <false/>
                        <key>x</key>
                        <integer>350</integer>
                        <key>y</key>
                        <integer>460</integer>
                      </dict>
                      <dict>
                        <key>smooth</key>
                        <false/>
                        <key>x</key>
                        <integer>300</integer>
                        <key>y</key>
                        <integer>510</integer>
                      </dict>
                      <dict>
                        <key>segmentType</key>
                        <string>curve</string>
                        <key>smooth</key>
                        <true/>
                        <key>x</key>
                        <integer>230</integer>
                        <key>y</key>
                        <integer>510</integer>
                      </dict>
                      <dict>
                        <key>smooth</key>
                        <false/>
                        <key>x</key>
                        <integer>180</integer>
                        <key>y</key>
                        <integer>510</integer>
                      </dict>
                      <dict>
                        <key>smooth</key>
                        <false/>
                        <key>x</key>
                        <integer>160</integer>
                        <key>y</key>
                        <integer>490</integer>
                      </dict>
                    </array>
                  </dict>
                  <dict>
                    <key>points</key>
                    <array>
                      <dict>
                        <key>segmentType</key>
                        <string>curve</string>
                        <key>smooth</key>
                        <false/>
                        <key>x</key>
                        <integer>330</integer>
                        <key>y</key>
                        <integer>450</integer>
                      </dict>
                      <dict>
                        <key>segmentType</key>
                        <string>line</string>
                        <key>smooth</key>
                        <false/>
                        <key>x</key>
                        <integer>350</integer>
                        <key>y</key>
                        <integer>360</integer>
                      </dict>
                      <dict>
                        <key>smooth</key>
                        <false/>
                        <key>x</key>
                        <integer>350</integer>
                        <key>y</key>
                        <integer>400</integer>
                      </dict>
                      <dict>
                        <key>smooth</key>
                        <false/>
                        <key>x</key>
                        <integer>370</integer>
                        <key>y</key>
                        <integer>410</integer>
                      </dict>
                      <dict>
                        <key>segmentType</key>
                        <string>curve</string>
                        <key>smooth</key>
                        <true/>
                        <key>x</key>
                        <integer>400</integer>
                        <key>y</key>
                        <integer>410</integer>
                      </dict>
                      <dict>
                        <key>smooth</key>
                        <false/>
                        <key>x</key>
                        <integer>430</integer>
                        <key>y</key>
                        <integer>410</integer>
                      </dict>
                      <dict>
                        <key>smooth</key>
                        <false/>
                        <key>x</key>
                        <integer>450</integer>
                        <key>y</key>
                        <integer>400</integer>
                      </dict>
                      <dict>
                        <key>segmentType</key>
                        <string>curve</string>
                        <key>smooth</key>
                        <false/>
                        <key>x</key>
                        <integer>450</integer>
                        <key>y</key>
                        <integer>360</integer>
                      </dict>
                      <dict>
                        <key>segmentType</key>
                        <string>line</string>
                        <key>smooth</key>
                        <false/>
                        <key>x</key>
                        <integer>450</integer>
                        <key>y</key>
                        <integer>0</integer>
                      </dict>
                      <dict>
                        <key>segmentType</key>
                        <string>line</string>
                        <key>smooth</key>
                        <false/>
                        <key>x</key>
                        <integer>550</integer>
                        <key>y</key>
                        <integer>0</integer>
                      </dict>
                      <dict>
                        <key>segmentType</key>
                        <string>line</string>
                        <key>smooth</key>
                        <false/>
                        <key>x</key>
                        <integer>550</integer>
                        <key>y</key>
                        <integer>390</integer>
                      </dict>
                      <dict>
                        <key>smooth</key>
                        <false/>
                        <key>x</key>
                        <integer>550</integer>
                        <key>y</key>
                        <integer>460</integer>
                      </dict>
                      <dict>
                        <key>smooth</key>
                        <false/>
                        <key>x</key>
                        <integer>500</integer>
                        <key>y</key>
                        <integer>510</integer>
                      </dict>
                      <dict>
                        <key>segmentType</key>
                        <string>curve</string>
                        <key>smooth</key>
                        <true/>
                        <key>x</key>
                        <integer>430</integer>
                        <key>y</key>
                        <integer>510</integer>
                      </dict>
                      <dict>
                        <key>smooth</key>
                        <false/>
                        <key>x</key>
                        <integer>380</integer>
                        <key>y</key>
                        <integer>510</integer>
                      </dict>
                      <dict>
                        <key>smooth</key>
                        <false/>
                        <key>x</key>
                        <integer>350</integer>
                        <key>y</key>
                        <integer>490</integer>
                      </dict>
                    </array>
                  </dict>
                </array>
                <key>lib</key>
                <dict>
                </dict>
                <key>name</key>
                <string>m</string>
                <key>unicodes</key>
                <array>
                </array>
                <key>width</key>
                <integer>600</integer>
              </dict>
            </dict>
          </dict>
          <key>name</key>
          <string>m.alt2</string>
          <key>unicodes</key>
          <array>
          </array>
          <key>width</key>
          <integer>800</integer>
        </dict>
      </dict>
      <key>com.typemytype.robofont.mark</key>
      <array>
        <real>1.0</real>
        <real>0.0</real>
        <real>0.0</real>
        <real>1.0</real>
      </array>
    </dict>
  </lib>
</glyph>
